<svg width="16" height="9" viewBox="0 0 16 9" fill="none" xmlns="http://www.w3.org/2000/svg">
<path d="M5 0C3.89543 0 3 0.895425 3 2C3 3.10457 3.89543 4 5 4C6.10457 4 7 3.10457 7 2C7 0.895425 6.10457 0 5 0Z" fill="#222222"/>
<path d="M11 0C9.89543 0 9 0.895425 9 2C9 3.10457 9.89543 4 11 4C12.1046 4 13 3.10457 13 2C13 0.895425 12.1046 0 11 0Z" fill="#222222"/>
<path d="M10 8.99999V7.45111C8.9777 5.97035 7.2688 4.99999 5.33333 4.99999H4.66667C2.7312 4.99999 1.0223 5.97035 0 7.45111V8.99999H10Z" fill="#222222"/>
<path d="M10.1509 4.99999C11.1655 6.13226 11.6453 7.5746 11.5898 9H16V7.45119C14.9176 5.97038 13.1082 4.99999 11.0588 4.99999H10.1509Z" fill="#222222"/>
</svg>
